{
    "data": {
        "matchPlayer": [
            {
                "_id": "62afe1f0c05d2dd5df1d4347",
                "sKey": "102098",
                "iMatchId": "62afe0b30dbb6b1022776dac",
                "sTeamName": "Indian CC Vienna",
                "iPlayerId": "62a3f911a6c9e15266046f19",
                "sImage": "match-players/1655693843587_WK-G3.png",
                "sLogoUrl": "",
                "sName": "Mehar Cheema",
                "sTeamKey": "116432",
                "eRole": "WK",
                "nFantasyCredit": 9.5,
                "nScoredPoints": 21,
                "nSeasonPoints": 0,
                "nSetBy": 78,
                "nCaptainBy": 9,
                "nViceCaptainBy": 6,
                "bShow": true,
                "dCreatedAt": "2022-06-20T02:56:48.951Z",
                "__v": 0,
                "dUpdatedAt": "2022-06-20T08:21:08.221Z",
                "oTeam": {
                    "sKey": "116432",
                    "sName": "Indian CC Vienna",
                    "sShortName": "INV",
                    "iTeamId": "62afe0b30dbb6b1022776d21"
                }
            },
            {
                "_id": "62afe1f0c05d2dd5df1d4367",
                "sKey": "102106",
                "iMatchId": "62afe0b30dbb6b1022776dac",
                "sTeamName": "Indian CC Vienna",
                "iPlayerId": "62afe1f0c05d2dd5df1d429b",
                "sLogoUrl": "",
                "sName": "Kunal Joshi",
                "sTeamKey": "116432",
                "eRole": "BATS",
                "nFantasyCredit": 9.5,
                "nScoredPoints": 26,
                "nSeasonPoints": 0,
                "nSetBy": 91,
                "nCaptainBy": 13,
                "nViceCaptainBy": 12,
                "bShow": true,
                "dCreatedAt": "2022-06-20T02:56:48.954Z",
                "__v": 0,
                "dUpdatedAt": "2022-06-20T08:21:08.497Z",
                "sImage": "match-players/1655693939326_BATS-G3.png",
                "oTeam": {
                    "sKey": "116432",
                    "sName": "Indian CC Vienna",
                    "sShortName": "INV",
                    "iTeamId": "62afe0b30dbb6b1022776d21"
                }
            },
            {
                "_id": "62afe1f0c05d2dd5df1d4387",
                "sKey": "102166",
                "iMatchId": "62afe0b30dbb6b1022776dac",
                "sTeamName": "Indian CC Vienna",
                "iPlayerId": "62afe1f0c05d2dd5df1d429c",
                "sLogoUrl": "",
                "sName": "Amandeep Chhabra",
                "sTeamKey": "116432",
                "eRole": "BATS",
                "nFantasyCredit": 9,
                "nScoredPoints": 5,
                "nSeasonPoints": 0,
                "nSetBy": 53,
                "nCaptainBy": 3,
                "nViceCaptainBy": 3,
                "bShow": true,
                "dCreatedAt": "2022-06-20T02:56:48.958Z",
                "__v": 0,
                "dUpdatedAt": "2022-06-20T08:21:08.708Z",
                "sImage": "match-players/1655693918558_BATS-G3.png",
                "oTeam": {
                    "sKey": "116432",
                    "sName": "Indian CC Vienna",
                    "sShortName": "INV",
                    "iTeamId": "62afe0b30dbb6b1022776d21"
                }
            },
            {
                "_id": "62afe1f0c05d2dd5df1d4397",
                "sKey": "62743",
                "iMatchId": "62afe0b30dbb6b1022776dac",
                "sTeamName": "Indian CC Vienna",
                "iPlayerId": "62a3f911a6c9e15266046f27",
                "sImage": "match-players/1655693907696_BATS-G3.png",
                "sLogoUrl": "",
                "sName": "Armaan Randhawa",
                "sTeamKey": "116432",
                "eRole": "BATS",
                "nFantasyCredit": 8.5,
                "nScoredPoints": 0,
                "nSeasonPoints": 0,
                "nSetBy": 0,
                "nCaptainBy": 0,
                "nViceCaptainBy": 0,
                "bShow": false,
                "dCreatedAt": "2022-06-20T02:56:48.960Z",
                "__v": 0,
                "dUpdatedAt": "2022-06-20T08:21:08.793Z",
                "oTeam": {
                    "sKey": "116432",
                    "sName": "Indian CC Vienna",
                    "sShortName": "INV",
                    "iTeamId": "62afe0b30dbb6b1022776d21"
                }
            },
            {
                "_id": "62afe1f0c05d2dd5df1d43a7",
                "sKey": "107570",
                "iMatchId": "62afe0b30dbb6b1022776dac",
                "sTeamName": "Indian CC Vienna",
                "iPlayerId": "62afe1f0c05d2dd5df1d429d",
                "sLogoUrl": "",
                "sName": "Ranjit Singh-1",
                "sTeamKey": "116432",
                "eRole": "BATS",
                "nFantasyCredit": 8.5,
                "nScoredPoints": 0,
                "nSeasonPoints": 0,
                "nSetBy": 0,
                "nCaptainBy": 0,
                "nViceCaptainBy": 0,
                "bShow": false,
                "dCreatedAt": "2022-06-20T02:56:48.961Z",
                "__v": 0,
                "dUpdatedAt": "2022-06-20T08:21:10.321Z",
                "sImage": "match-players/1655693900007_BATS-G3.png",
                "oTeam": {
                    "sKey": "116432",
                    "sName": "Indian CC Vienna",
                    "sShortName": "INV",
                    "iTeamId": "62afe0b30dbb6b1022776d21"
                }
            },
            {
                "_id": "62afe1f0c05d2dd5df1d43f7",
                "sKey": "117277",
                "iMatchId": "62afe0b30dbb6b1022776dac",
                "sTeamName": "Indian CC Vienna",
                "iPlayerId": "62afe1f0c05d2dd5df1d42a2",
                "sLogoUrl": "",
                "sName": "Khitab Omari",
                "sTeamKey": "116432",
                "eRole": "ALLR",
                "nFantasyCredit": 8,
                "nScoredPoints": 14,
                "nSeasonPoints": 0,
                "nSetBy": 21,
                "nCaptainBy": 3,
                "nViceCaptainBy": 2,
                "bShow": true,
                "dCreatedAt": "2022-06-20T02:56:48.970Z",
                "__v": 0,
                "dUpdatedAt": "2022-06-20T08:21:10.206Z",
                "sImage": "match-players/1655693858350_AR-G3.png",
                "oTeam": {
                    "sKey": "116432",
                    "sName": "Indian CC Vienna",
                    "sShortName": "INV",
                    "iTeamId": "62afe0b30dbb6b1022776d21"
                }
            },
            {
                "_id": "62afe1f0c05d2dd5df1d4407",
                "sKey": "117278",
                "iMatchId": "62afe0b30dbb6b1022776dac",
                "sTeamName": "Indian CC Vienna",
                "iPlayerId": "62afe1f0c05d2dd5df1d42a3",
                "sLogoUrl": "",
                "sName": "Inzirgul Ahmadzai",
                "sTeamKey": "116432",
                "eRole": "ALLR",
                "nFantasyCredit": 8,
                "nScoredPoints": 0,
                "nSeasonPoints": 0,
                "nSetBy": 0,
                "nCaptainBy": 0,
                "nViceCaptainBy": 0,
                "bShow": false,
                "dCreatedAt": "2022-06-20T02:56:48.972Z",
                "__v": 0,
                "dUpdatedAt": "2022-06-20T08:21:08.815Z",
                "sImage": "match-players/1655693851067_AR-G3.png",
                "oTeam": {
                    "sKey": "116432",
                    "sName": "Indian CC Vienna",
                    "sShortName": "INV",
                    "iTeamId": "62afe0b30dbb6b1022776d21"
                }
            },
            {
                "_id": "62afe1f1c05d2dd5df1d4427",
                "sKey": "102102",
                "iMatchId": "62afe0b30dbb6b1022776dac",
                "sTeamName": "Indian CC Vienna",
                "iPlayerId": "62afe1f0c05d2dd5df1d42a5",
                "sLogoUrl": "",
                "sName": "Sumer Shergill",
                "sTeamKey": "116432",
                "eRole": "BWL",
                "nFantasyCredit": 8.5,
                "nScoredPoints": 1,
                "nSeasonPoints": 0,
                "nSetBy": 34,
                "nCaptainBy": 3,
                "nViceCaptainBy": 2,
                "bShow": true,
                "dCreatedAt": "2022-06-20T02:56:49.041Z",
                "__v": 0,
                "dUpdatedAt": "2022-06-20T08:21:08.236Z",
                "sImage": "match-players/1655693971487_BOWLER-G3.png",
                "oTeam": {
                    "sKey": "116432",
                    "sName": "Indian CC Vienna",
                    "sShortName": "INV",
                    "iTeamId": "62afe0b30dbb6b1022776d21"
                }
            },
            {
                "_id": "62afe1f1c05d2dd5df1d4437",
                "sKey": "102104",
                "iMatchId": "62afe0b30dbb6b1022776dac",
                "sTeamName": "Indian CC Vienna",
                "iPlayerId": "62afe1f0c05d2dd5df1d42a6",
                "sLogoUrl": "",
                "sName": "Sunny Bains",
                "sTeamKey": "116432",
                "eRole": "BWL",
                "nFantasyCredit": 8.5,
                "nScoredPoints": 0,
                "nSeasonPoints": 0,
                "nSetBy": 9,
                "nCaptainBy": 1,
                "nViceCaptainBy": 1,
                "bShow": false,
                "dCreatedAt": "2022-06-20T02:56:49.042Z",
                "__v": 0,
                "dUpdatedAt": "2022-06-20T08:21:10.421Z",
                "sImage": "match-players/1655693963807_BOWLER-G3.png",
                "oTeam": {
                    "sKey": "116432",
                    "sName": "Indian CC Vienna",
                    "sShortName": "INV",
                    "iTeamId": "62afe0b30dbb6b1022776d21"
                }
            },
            {
                "_id": "62afe1f1c05d2dd5df1d4477",
                "sKey": "107533",
                "iMatchId": "62afe0b30dbb6b1022776dac",
                "sTeamName": "Pakistan CC",
                "iPlayerId": "62afe1f0c05d2dd5df1d42aa",
                "sLogoUrl": "",
                "sName": "Asif Zazai",
                "sTeamKey": "116435",
                "eRole": "WK",
                "nFantasyCredit": 8,
                "nScoredPoints": 0,
                "nSeasonPoints": 0,
                "nSetBy": 9,
                "nCaptainBy": 1,
                "nViceCaptainBy": 0,
                "bShow": false,
                "dCreatedAt": "2022-06-20T02:56:49.050Z",
                "__v": 0,
                "dUpdatedAt": "2022-06-20T08:21:10.494Z",
                "sImage": "match-players/1655694001504_WK-ORNG.png",
                "oTeam": {
                    "sKey": "116435",
                    "sName": "Pakistan CC",
                    "sShortName": "PKC",
                    "iTeamId": "62afe0b30dbb6b1022776d22"
                }
            },
            {
                "_id": "62afe1f1c05d2dd5df1d44b7",
                "sKey": "117280",
                "iMatchId": "62afe0b30dbb6b1022776dac",
                "sTeamName": "Pakistan CC",
                "iPlayerId": "62afe1f0c05d2dd5df1d42ae",
                "sLogoUrl": "",
                "sName": "Umer Gujjar",
                "sTeamKey": "116435",
                "eRole": "BATS",
                "nFantasyCredit": 8,
                "nScoredPoints": 0,
                "nSeasonPoints": 0,
                "nSetBy": 0,
                "nCaptainBy": 0,
                "nViceCaptainBy": 0,
                "bShow": false,
                "dCreatedAt": "2022-06-20T02:56:49.055Z",
                "__v": 0,
                "dUpdatedAt": "2022-06-20T08:21:08.326Z",
                "sImage": "match-players/1655694063158_BATS-ORNG.png",
                "oTeam": {
                    "sKey": "116435",
                    "sName": "Pakistan CC",
                    "sShortName": "PKC",
                    "iTeamId": "62afe0b30dbb6b1022776d22"
                }
            },
            {
                "_id": "62afe1f1c05d2dd5df1d44d7",
                "sKey": "117282",
                "iMatchId": "62afe0b30dbb6b1022776dac",
                "sTeamName": "Pakistan CC",
                "iPlayerId": "62afe1f0c05d2dd5df1d42b0",
                "sLogoUrl": "",
                "sName": "Mohamad Naseri",
                "sTeamKey": "116435",
                "eRole": "ALLR",
                "nFantasyCredit": 9.5,
                "nScoredPoints": 0,
                "nSeasonPoints": 0,
                "nSetBy": 19,
                "nCaptainBy": 2,
                "nViceCaptainBy": 2,
                "bShow": false,
                "dCreatedAt": "2022-06-20T02:56:49.059Z",
                "__v": 0,
                "dUpdatedAt": "2022-06-20T08:21:09.889Z",
                "sImage": "match-players/1655694048498_AR-ORNG.png",
                "oTeam": {
                    "sKey": "116435",
                    "sName": "Pakistan CC",
                    "sShortName": "PKC",
                    "iTeamId": "62afe0b30dbb6b1022776d22"
                }
            },
            {
                "_id": "62afe1f1c05d2dd5df1d4527",
                "sKey": "62739",
                "iMatchId": "62afe0b30dbb6b1022776dac",
                "sTeamName": "Pakistan CC",
                "iPlayerId": "62afe1f0c05d2dd5df1d42b5",
                "sLogoUrl": "",
                "sName": "Imran Goraya",
                "sTeamKey": "116435",
                "eRole": "BWL",
                "nFantasyCredit": 9,
                "nScoredPoints": 1,
                "nSeasonPoints": 0,
                "nSetBy": 90,
                "nCaptainBy": 12,
                "nViceCaptainBy": 6,
                "bShow": true,
                "dCreatedAt": "2022-06-20T02:56:49.143Z",
                "__v": 0,
                "dUpdatedAt": "2022-06-20T08:21:10.014Z",
                "sImage": "match-players/1655694133085_BOWLER-ORNG.png",
                "oTeam": {
                    "sKey": "116435",
                    "sName": "Pakistan CC",
                    "sShortName": "PKC",
                    "iTeamId": "62afe0b30dbb6b1022776d22"
                }
            },
            {
                "_id": "62afe1f0c05d2dd5df1d43b7",
                "sKey": "107654",
                "iMatchId": "62afe0b30dbb6b1022776dac",
                "sTeamName": "Indian CC Vienna",
                "iPlayerId": "62afe1f0c05d2dd5df1d429e",
                "sLogoUrl": "",
                "sName": "Iqbal Singh",
                "sTeamKey": "116432",
                "eRole": "BATS",
                "nFantasyCredit": 8,
                "nScoredPoints": 22,
                "nSeasonPoints": 0,
                "nSetBy": 11,
                "nCaptainBy": 1,
                "nViceCaptainBy": 2,
                "bShow": true,
                "dCreatedAt": "2022-06-20T02:56:48.962Z",
                "__v": 0,
                "dUpdatedAt": "2022-06-20T08:21:10.096Z",
                "sImage": "match-players/1655693892097_BATS-G3.png",
                "oTeam": {
                    "sKey": "116432",
                    "sName": "Indian CC Vienna",
                    "sShortName": "INV",
                    "iTeamId": "62afe0b30dbb6b1022776d21"
                }
            },
            {
                "_id": "62afe1f1c05d2dd5df1d4467",
                "sKey": "107527",
                "iMatchId": "62afe0b30dbb6b1022776dac",
                "sTeamName": "Pakistan CC",
                "iPlayerId": "62afe1f0c05d2dd5df1d42a9",
                "sLogoUrl": "",
                "sName": "Amir Naeem",
                "sTeamKey": "116435",
                "eRole": "WK",
                "nFantasyCredit": 9,
                "nScoredPoints": 33,
                "nSeasonPoints": 0,
                "nSetBy": 84,
                "nCaptainBy": 8,
                "nViceCaptainBy": 9,
                "bShow": true,
                "dCreatedAt": "2022-06-20T02:56:49.047Z",
                "__v": 0,
                "dUpdatedAt": "2022-06-20T08:21:08.311Z",
                "sImage": "match-players/1655694009168_WK-ORNG.png",
                "oTeam": {
                    "sKey": "116435",
                    "sName": "Pakistan CC",
                    "sShortName": "PKC",
                    "iTeamId": "62afe0b30dbb6b1022776d22"
                }
            },
            {
                "_id": "62afe1f1c05d2dd5df1d4487",
                "sKey": "102139",
                "iMatchId": "62afe0b30dbb6b1022776dac",
                "sTeamName": "Pakistan CC",
                "iPlayerId": "62afe1f0c05d2dd5df1d42ab",
                "sLogoUrl": "",
                "sName": "Sikandar Hayat",
                "sTeamKey": "116435",
                "eRole": "BATS",
                "nFantasyCredit": 9.5,
                "nScoredPoints": 0,
                "nSeasonPoints": 0,
                "nSetBy": 19,
                "nCaptainBy": 2,
                "nViceCaptainBy": 1,
                "bShow": false,
                "dCreatedAt": "2022-06-20T02:56:49.051Z",
                "__v": 0,
                "dUpdatedAt": "2022-06-20T08:21:09.002Z",
                "sImage": "match-players/1655694092431_BATS-ORNG.png",
                "oTeam": {
                    "sKey": "116435",
                    "sName": "Pakistan CC",
                    "sShortName": "PKC",
                    "iTeamId": "62afe0b30dbb6b1022776d22"
                }
            },
            {
                "_id": "62afe1f1c05d2dd5df1d44e7",
                "sKey": "95008",
                "iMatchId": "62afe0b30dbb6b1022776dac",
                "sTeamName": "Pakistan CC",
                "iPlayerId": "62afe1f0c05d2dd5df1d42b1",
                "sLogoUrl": "",
                "sName": "Shadnan Khan",
                "sTeamKey": "116435",
                "eRole": "ALLR",
                "nFantasyCredit": 9,
                "nScoredPoints": 62,
                "nSeasonPoints": 0,
                "nSetBy": 86,
                "nCaptainBy": 12,
                "nViceCaptainBy": 14,
                "bShow": true,
                "dCreatedAt": "2022-06-20T02:56:49.060Z",
                "__v": 0,
                "dUpdatedAt": "2022-06-20T08:21:10.221Z",
                "sImage": "match-players/1655694042342_AR-ORNG.png",
                "oTeam": {
                    "sKey": "116435",
                    "sName": "Pakistan CC",
                    "sShortName": "PKC",
                    "iTeamId": "62afe0b30dbb6b1022776d22"
                }
            },
            {
                "_id": "62afe1f1c05d2dd5df1d4507",
                "sKey": "48454",
                "iMatchId": "62afe0b30dbb6b1022776dac",
                "sTeamName": "Pakistan CC",
                "iPlayerId": "62afe1f0c05d2dd5df1d42b3",
                "sLogoUrl": "",
                "sName": "Mohammed Qasim",
                "sTeamKey": "116435",
                "eRole": "ALLR",
                "nFantasyCredit": 8,
                "nScoredPoints": 30,
                "nSeasonPoints": 0,
                "nSetBy": 42,
                "nCaptainBy": 5,
                "nViceCaptainBy": 4,
                "bShow": true,
                "dCreatedAt": "2022-06-20T02:56:49.064Z",
                "__v": 0,
                "dUpdatedAt": "2022-06-20T08:21:10.295Z",
                "sImage": "match-players/1655694030787_AR-ORNG.png",
                "oTeam": {
                    "sKey": "116435",
                    "sName": "Pakistan CC",
                    "sShortName": "PKC",
                    "iTeamId": "62afe0b30dbb6b1022776d22"
                }
            },
            {
                "_id": "62afe1f1c05d2dd5df1d4517",
                "sKey": "107546",
                "iMatchId": "62afe0b30dbb6b1022776dac",
                "sTeamName": "Pakistan CC",
                "iPlayerId": "62afe1f0c05d2dd5df1d42b4",
                "sLogoUrl": "",
                "sName": "Naeem kamran",
                "sTeamKey": "116435",
                "eRole": "ALLR",
                "nFantasyCredit": 8,
                "nScoredPoints": 4,
                "nSeasonPoints": 0,
                "nSetBy": 18,
                "nCaptainBy": 2,
                "nViceCaptainBy": 2,
                "bShow": true,
                "dCreatedAt": "2022-06-20T02:56:49.141Z",
                "__v": 0,
                "dUpdatedAt": "2022-06-20T08:21:10.308Z",
                "sImage": "match-players/1655694021478_AR-ORNG.png",
                "oTeam": {
                    "sKey": "116435",
                    "sName": "Pakistan CC",
                    "sShortName": "PKC",
                    "iTeamId": "62afe0b30dbb6b1022776d22"
                }
            },
            {
                "_id": "62afe1f1c05d2dd5df1d4557",
                "sKey": "117284",
                "iMatchId": "62afe0b30dbb6b1022776dac",
                "sTeamName": "Pakistan CC",
                "iPlayerId": "62afe1f0c05d2dd5df1d42b8",
                "sLogoUrl": "",
                "sName": "Hannan Mahmood",
                "sTeamKey": "116435",
                "eRole": "BWL",
                "nFantasyCredit": 8.5,
                "nScoredPoints": 0,
                "nSeasonPoints": 0,
                "nSetBy": 0,
                "nCaptainBy": 0,
                "nViceCaptainBy": 0,
                "bShow": false,
                "dCreatedAt": "2022-06-20T02:56:49.147Z",
                "__v": 0,
                "dUpdatedAt": "2022-06-20T08:21:10.610Z",
                "sImage": "match-players/1655694115037_BOWLER-ORNG.png",
                "oTeam": {
                    "sKey": "116435",
                    "sName": "Pakistan CC",
                    "sShortName": "PKC",
                    "iTeamId": "62afe0b30dbb6b1022776d22"
                }
            },
            {
                "_id": "62afe1f0c05d2dd5df1d4357",
                "sKey": "102117",
                "iMatchId": "62afe0b30dbb6b1022776dac",
                "sTeamName": "Indian CC Vienna",
                "iPlayerId": "62afe1f0c05d2dd5df1d429a",
                "sLogoUrl": "",
                "sName": "Jamil Bahramkhil",
                "sTeamKey": "116432",
                "eRole": "WK",
                "nFantasyCredit": 8,
                "nScoredPoints": 4,
                "nSeasonPoints": 0,
                "nSetBy": 30,
                "nCaptainBy": 2,
                "nViceCaptainBy": 4,
                "bShow": true,
                "dCreatedAt": "2022-06-20T02:56:48.953Z",
                "__v": 0,
                "dUpdatedAt": "2022-06-20T08:21:08.412Z",
                "sImage": "match-players/1655693834597_WK-G3.png",
                "oTeam": {
                    "sKey": "116432",
                    "sName": "Indian CC Vienna",
                    "sShortName": "INV",
                    "iTeamId": "62afe0b30dbb6b1022776d21"
                }
            },
            {
                "_id": "62afe1f0c05d2dd5df1d43c7",
                "sKey": "102099",
                "iMatchId": "62afe0b30dbb6b1022776dac",
                "sTeamName": "Indian CC Vienna",
                "iPlayerId": "62afe1f0c05d2dd5df1d429f",
                "sLogoUrl": "",
                "sName": "Abhishek Gopalakrishnan",
                "sTeamKey": "116432",
                "eRole": "ALLR",
                "nFantasyCredit": 8.5,
                "nScoredPoints": 0,
                "nSeasonPoints": 0,
                "nSetBy": 28,
                "nCaptainBy": 2,
                "nViceCaptainBy": 2,
                "bShow": false,
                "dCreatedAt": "2022-06-20T02:56:48.966Z",
                "__v": 0,
                "dUpdatedAt": "2022-06-20T08:21:10.111Z",
                "sImage": "match-players/1655693881886_AR-G3.png",
                "oTeam": {
                    "sKey": "116432",
                    "sName": "Indian CC Vienna",
                    "sShortName": "INV",
                    "iTeamId": "62afe0b30dbb6b1022776d21"
                }
            },
            {
                "_id": "62afe1f0c05d2dd5df1d43d7",
                "sKey": "102112",
                "iMatchId": "62afe0b30dbb6b1022776dac",
                "sTeamName": "Indian CC Vienna",
                "iPlayerId": "62afe1f0c05d2dd5df1d42a0",
                "sLogoUrl": "",
                "sName": "Daud Zadran",
                "sTeamKey": "116432",
                "eRole": "ALLR",
                "nFantasyCredit": 8.5,
                "nScoredPoints": 42,
                "nSeasonPoints": 0,
                "nSetBy": 78,
                "nCaptainBy": 7,
                "nViceCaptainBy": 9,
                "bShow": true,
                "dCreatedAt": "2022-06-20T02:56:48.968Z",
                "__v": 0,
                "dUpdatedAt": "2022-06-20T08:21:10.394Z",
                "sImage": "match-players/1655693874098_AR-G3.png",
                "oTeam": {
                    "sKey": "116432",
                    "sName": "Indian CC Vienna",
                    "sShortName": "INV",
                    "iTeamId": "62afe0b30dbb6b1022776d21"
                }
            },
            {
                "_id": "62afe1f0c05d2dd5df1d43e7",
                "sKey": "117276",
                "iMatchId": "62afe0b30dbb6b1022776dac",
                "sTeamName": "Indian CC Vienna",
                "iPlayerId": "62afe1f0c05d2dd5df1d42a1",
                "sLogoUrl": "",
                "sName": "Gill Shamsher",
                "sTeamKey": "116432",
                "eRole": "ALLR",
                "nFantasyCredit": 8.5,
                "nScoredPoints": 81,
                "nSeasonPoints": 0,
                "nSetBy": 75,
                "nCaptainBy": 8,
                "nViceCaptainBy": 7,
                "bShow": true,
                "dCreatedAt": "2022-06-20T02:56:48.969Z",
                "__v": 0,
                "dUpdatedAt": "2022-06-20T08:21:10.193Z",
                "sImage": "match-players/1655693865618_AR-G3.png",
                "oTeam": {
                    "sKey": "116432",
                    "sName": "Indian CC Vienna",
                    "sShortName": "INV",
                    "iTeamId": "62afe0b30dbb6b1022776d21"
                }
            },
            {
                "_id": "62afe1f0c05d2dd5df1d4417",
                "sKey": "102111",
                "iMatchId": "62afe0b30dbb6b1022776dac",
                "sTeamName": "Indian CC Vienna",
                "iPlayerId": "62afe1f0c05d2dd5df1d42a4",
                "sLogoUrl": "",
                "sName": "Ahmad Ghani",
                "sTeamKey": "116432",
                "eRole": "BWL",
                "nFantasyCredit": 9,
                "nScoredPoints": 80,
                "nSeasonPoints": 0,
                "nSetBy": 77,
                "nCaptainBy": 3,
                "nViceCaptainBy": 5,
                "bShow": true,
                "dCreatedAt": "2022-06-20T02:56:49.039Z",
                "__v": 0,
                "dUpdatedAt": "2022-06-20T08:21:10.407Z",
                "sImage": "match-players/1655693977639_BOWLER-G3.png",
                "oTeam": {
                    "sKey": "116432",
                    "sName": "Indian CC Vienna",
                    "sShortName": "INV",
                    "iTeamId": "62afe0b30dbb6b1022776d21"
                }
            },
            {
                "_id": "62afe1f1c05d2dd5df1d4497",
                "sKey": "107498",
                "iMatchId": "62afe0b30dbb6b1022776dac",
                "sTeamName": "Pakistan CC",
                "iPlayerId": "62afe1f0c05d2dd5df1d42ac",
                "sLogoUrl": "",
                "sName": "Ruhullah Abdurahimzai",
                "sTeamKey": "116435",
                "eRole": "BATS",
                "nFantasyCredit": 8.5,
                "nScoredPoints": 0,
                "nSeasonPoints": 0,
                "nSetBy": 0,
                "nCaptainBy": 0,
                "nViceCaptainBy": 0,
                "bShow": false,
                "dCreatedAt": "2022-06-20T02:56:49.052Z",
                "__v": 0,
                "dUpdatedAt": "2022-06-20T08:21:09.288Z",
                "sImage": "match-players/1655694081178_BATS-ORNG.png",
                "oTeam": {
                    "sKey": "116435",
                    "sName": "Pakistan CC",
                    "sShortName": "PKC",
                    "iTeamId": "62afe0b30dbb6b1022776d22"
                }
            },
            {
                "_id": "62afe1f1c05d2dd5df1d44c7",
                "sKey": "117281",
                "iMatchId": "62afe0b30dbb6b1022776dac",
                "sTeamName": "Pakistan CC",
                "iPlayerId": "62afe1f0c05d2dd5df1d42af",
                "sLogoUrl": "",
                "sName": "Adnannaser Naseri",
                "sTeamKey": "116435",
                "eRole": "BATS",
                "nFantasyCredit": 8,
                "nScoredPoints": 3,
                "nSeasonPoints": 0,
                "nSetBy": 8,
                "nCaptainBy": 1,
                "nViceCaptainBy": 1,
                "bShow": true,
                "dCreatedAt": "2022-06-20T02:56:49.057Z",
                "__v": 0,
                "dUpdatedAt": "2022-06-20T08:21:10.510Z",
                "sImage": "match-players/1655694057416_BATS-ORNG.png",
                "oTeam": {
                    "sKey": "116435",
                    "sName": "Pakistan CC",
                    "sShortName": "PKC",
                    "iTeamId": "62afe0b30dbb6b1022776d22"
                }
            },
            {
                "_id": "62afe1f1c05d2dd5df1d44f7",
                "sKey": "117283",
                "iMatchId": "62afe0b30dbb6b1022776dac",
                "sTeamName": "Pakistan CC",
                "iPlayerId": "62afe1f0c05d2dd5df1d42b2",
                "sLogoUrl": "",
                "sName": "Rohail Naeem",
                "sTeamKey": "116435",
                "eRole": "ALLR",
                "nFantasyCredit": 8.5,
                "nScoredPoints": 0,
                "nSeasonPoints": 0,
                "nSetBy": 0,
                "nCaptainBy": 0,
                "nViceCaptainBy": 0,
                "bShow": false,
                "dCreatedAt": "2022-06-20T02:56:49.062Z",
                "__v": 0,
                "dUpdatedAt": "2022-06-20T08:21:09.993Z",
                "sImage": "match-players/1655694036830_AR-ORNG.png",
                "oTeam": {
                    "sKey": "116435",
                    "sName": "Pakistan CC",
                    "sShortName": "PKC",
                    "iTeamId": "62afe0b30dbb6b1022776d22"
                }
            },
            {
                "_id": "62afe1f1c05d2dd5df1d4547",
                "sKey": "114149",
                "iMatchId": "62afe0b30dbb6b1022776dac",
                "sTeamName": "Pakistan CC",
                "iPlayerId": "62afe1f0c05d2dd5df1d42b7",
                "sLogoUrl": "",
                "sName": "Muhammad Ajmal",
                "sTeamKey": "116435",
                "eRole": "BWL",
                "nFantasyCredit": 8.5,
                "nScoredPoints": 19,
                "nSeasonPoints": 0,
                "nSetBy": 59,
                "nCaptainBy": 3,
                "nViceCaptainBy": 3,
                "bShow": true,
                "dCreatedAt": "2022-06-20T02:56:49.146Z",
                "__v": 0,
                "dUpdatedAt": "2022-06-20T08:21:08.395Z",
                "sImage": "match-players/1655694121508_BOWLER-ORNG.png",
                "oTeam": {
                    "sKey": "116435",
                    "sName": "Pakistan CC",
                    "sShortName": "PKC",
                    "iTeamId": "62afe0b30dbb6b1022776d22"
                }
            },
            {
                "_id": "62afe1f0c05d2dd5df1d4377",
                "sKey": "102127",
                "iMatchId": "62afe0b30dbb6b1022776dac",
                "sTeamName": "Indian CC Vienna",
                "iPlayerId": "62a3f911a6c9e15266046f20",
                "sImage": "match-players/1655693928807_BATS-G3.png",
                "sLogoUrl": "",
                "sName": "Iqbal Hossain",
                "sTeamKey": "116432",
                "eRole": "BATS",
                "nFantasyCredit": 9,
                "nScoredPoints": 53,
                "nSeasonPoints": 0,
                "nSetBy": 82,
                "nCaptainBy": 5,
                "nViceCaptainBy": 8,
                "bShow": true,
                "dCreatedAt": "2022-06-20T02:56:48.956Z",
                "__v": 0,
                "dUpdatedAt": "2022-06-20T08:21:08.688Z",
                "oTeam": {
                    "sKey": "116432",
                    "sName": "Indian CC Vienna",
                    "sShortName": "INV",
                    "iTeamId": "62afe0b30dbb6b1022776d21"
                }
            },
            {
                "_id": "62afe1f1c05d2dd5df1d4447",
                "sKey": "102108",
                "iMatchId": "62afe0b30dbb6b1022776dac",
                "sTeamName": "Indian CC Vienna",
                "iPlayerId": "62afe1f0c05d2dd5df1d42a7",
                "sLogoUrl": "",
                "sName": "Mani Singh",
                "sTeamKey": "116432",
                "eRole": "BWL",
                "nFantasyCredit": 8.5,
                "nScoredPoints": 0,
                "nSeasonPoints": 0,
                "nSetBy": 0,
                "nCaptainBy": 0,
                "nViceCaptainBy": 0,
                "bShow": false,
                "dCreatedAt": "2022-06-20T02:56:49.044Z",
                "__v": 0,
                "dUpdatedAt": "2022-06-20T08:21:08.294Z",
                "sImage": "match-players/1655693956128_BOWLER-G3.png",
                "oTeam": {
                    "sKey": "116432",
                    "sName": "Indian CC Vienna",
                    "sShortName": "INV",
                    "iTeamId": "62afe0b30dbb6b1022776d21"
                }
            },
            {
                "_id": "62afe1f1c05d2dd5df1d4457",
                "sKey": "117279",
                "iMatchId": "62afe0b30dbb6b1022776dac",
                "sTeamName": "Indian CC Vienna",
                "iPlayerId": "62afe1f0c05d2dd5df1d42a8",
                "sLogoUrl": "",
                "sName": "Ganesh Sekhar",
                "sTeamKey": "116432",
                "eRole": "BWL",
                "nFantasyCredit": 8,
                "nScoredPoints": 0,
                "nSeasonPoints": 0,
                "nSetBy": 0,
                "nCaptainBy": 0,
                "nViceCaptainBy": 0,
                "bShow": false,
                "dCreatedAt": "2022-06-20T02:56:49.046Z",
                "__v": 0,
                "dUpdatedAt": "2022-06-20T08:21:08.902Z",
                "sImage": "match-players/1655693949587_BOWLER-G3.png",
                "oTeam": {
                    "sKey": "116432",
                    "sName": "Indian CC Vienna",
                    "sShortName": "INV",
                    "iTeamId": "62afe0b30dbb6b1022776d21"
                }
            },
            {
                "_id": "62afe1f1c05d2dd5df1d44a7",
                "sKey": "107531",
                "iMatchId": "62afe0b30dbb6b1022776dac",
                "sTeamName": "Pakistan CC",
                "iPlayerId": "62afe1f0c05d2dd5df1d42ad",
                "sLogoUrl": "",
                "sName": "Naveed Sadiq Hassan",
                "sTeamKey": "116435",
                "eRole": "BATS",
                "nFantasyCredit": 8.5,
                "nScoredPoints": 29,
                "nSeasonPoints": 0,
                "nSetBy": 58,
                "nCaptainBy": 1,
                "nViceCaptainBy": 1,
                "bShow": true,
                "dCreatedAt": "2022-06-20T02:56:49.054Z",
                "__v": 0,
                "dUpdatedAt": "2022-06-20T08:21:09.694Z",
                "sImage": "match-players/1655694070521_BATS-ORNG.png",
                "oTeam": {
                    "sKey": "116435",
                    "sName": "Pakistan CC",
                    "sShortName": "PKC",
                    "iTeamId": "62afe0b30dbb6b1022776d22"
                }
            },
            {
                "_id": "62afe1f1c05d2dd5df1d4537",
                "sKey": "107530",
                "iMatchId": "62afe0b30dbb6b1022776dac",
                "sTeamName": "Pakistan CC",
                "iPlayerId": "62afe1f0c05d2dd5df1d42b6",
                "sLogoUrl": "",
                "sName": "Ziaurahman Shinwari",
                "sTeamKey": "116435",
                "eRole": "BWL",
                "nFantasyCredit": 8.5,
                "nScoredPoints": 26,
                "nSeasonPoints": 0,
                "nSetBy": 16,
                "nCaptainBy": 1,
                "nViceCaptainBy": 1,
                "bShow": true,
                "dCreatedAt": "2022-06-20T02:56:49.145Z",
                "__v": 0,
                "dUpdatedAt": "2022-06-20T08:21:10.597Z",
                "sImage": "match-players/1655694127447_BOWLER-ORNG.png",
                "oTeam": {
                    "sKey": "116435",
                    "sName": "Pakistan CC",
                    "sShortName": "PKC",
                    "iTeamId": "62afe0b30dbb6b1022776d22"
                }
            },
            {
                "_id": "62afe1f1c05d2dd5df1d4567",
                "sKey": "117285",
                "iMatchId": "62afe0b30dbb6b1022776dac",
                "sTeamName": "Pakistan CC",
                "iPlayerId": "62afe1f0c05d2dd5df1d42b9",
                "sLogoUrl": "",
                "sName": "Abuseen Dostahil",
                "sTeamKey": "116435",
                "eRole": "BWL",
                "nFantasyCredit": 8,
                "nScoredPoints": 41,
                "nSeasonPoints": 0,
                "nSetBy": 6,
                "nCaptainBy": 0,
                "nViceCaptainBy": 0,
                "bShow": true,
                "dCreatedAt": "2022-06-20T02:56:49.149Z",
                "__v": 0,
                "dUpdatedAt": "2022-06-20T08:21:10.031Z",
                "sImage": "match-players/1655694106968_BOWLER-ORNG.png",
                "oTeam": {
                    "sKey": "116435",
                    "sName": "Pakistan CC",
                    "sShortName": "PKC",
                    "iTeamId": "62afe0b30dbb6b1022776d22"
                }
            },
            {
                "_id": "62b0059bc05d2dd5df1d9467",
                "sKey": "107658",
                "iMatchId": "62afe0b30dbb6b1022776dac",
                "sTeamName": "Pakistan CC",
                "iPlayerId": "62b00599c05d2dd5df1d93c8",
                "sLogoUrl": "",
                "sName": "Khurram Shahzad",
                "sTeamKey": "116435",
                "eRole": "BATS",
                "nFantasyCredit": 8.5,
                "nScoredPoints": 5,
                "nSeasonPoints": 0,
                "nSetBy": 0,
                "nCaptainBy": 0,
                "nViceCaptainBy": 0,
                "bShow": true,
                "dCreatedAt": "2022-06-20T05:28:59.252Z",
                "__v": 0,
                "dUpdatedAt": "2022-06-20T08:21:10.691Z",
                "sImage": "match-players/1655703056261_BATS-ORNG.png",
                "oTeam": {
                    "sKey": "116435",
                    "sName": "Pakistan CC",
                    "sShortName": "PKC",
                    "iTeamId": "62afe0b30dbb6b1022776d22"
                }
            },
            {
                "_id": "62b0059bc05d2dd5df1d9477",
                "sKey": "62745",
                "iMatchId": "62afe0b30dbb6b1022776dac",
                "sTeamName": "Pakistan CC",
                "iPlayerId": "62b00599c05d2dd5df1d93c9",
                "sLogoUrl": "",
                "sName": "Babar Nadeem",
                "sTeamKey": "116435",
                "eRole": "BATS",
                "nFantasyCredit": 8.5,
                "nScoredPoints": 0,
                "nSeasonPoints": 0,
                "nSetBy": 0,
                "nCaptainBy": 0,
                "nViceCaptainBy": 0,
                "bShow": false,
                "dCreatedAt": "2022-06-20T05:28:59.256Z",
                "__v": 0,
                "dUpdatedAt": "2022-06-20T08:21:10.707Z",
                "sImage": "match-players/1655703047126_BATS-ORNG.png",
                "oTeam": {
                    "sKey": "116435",
                    "sName": "Pakistan CC",
                    "sShortName": "PKC",
                    "iTeamId": "62afe0b30dbb6b1022776d22"
                }
            }
        ],
        "aPlayerRole": [
            {
                "sName": "WK",
                "nMax": 4,
                "nMin": 1,
                "nPosition": null,
                "_id": "62a32d9d9119240d0213b913"
            },
            {
                "sName": "ALLR",
                "nMax": 5,
                "nMin": 1,
                "_id": "62a32d9d9119240d0213b914"
            },
            {
                "sName": "BATS",
                "nMax": 6,
                "nMin": 2,
                "_id": "62a32d9d9119240d0213b915"
            },
            {
                "sName": "BWL",
                "nMax": 6,
                "nMin": 2,
                "_id": "62a32d9d9119240d0213b916"
            }
        ]
    }
}